{
    "sites": [
        {
             "key": "js豆瓣",
            "name": "🐼┃豆瓣┃",
            "type": 3,
            "api": "http://alist.xn--z7x900a.love:63/drpy2.min.js",
            "ext": "http://alist.xn--z7x900a.love:63/豆瓣.js"
        },
        
        {
            "key": "YQK_spider",
            "name": "🙆┃一起┃电视",
            "api": "csp_YQKAPP",
            "type": 3,
            "filterable": 1,
            "playerType": 2,
            "quickSearch": 1,
            "searchable": 1,
            "ext": "https://api-tx.11ty.top",
            "m3u8ads": "hd.youyhn.com"
        },
        {
            "key": "Xinsj",
            "name": "🌟┃视觉┃影视",
            "type": "3",
            "api": "csp_Xinsj",
            "searchable": "1",
            "quickSearch": "1",
            "filterable": "1",
            "ext": "https://www.6080dy2.com"
        },
        {
            "key": "js七七",
            "name": "🌈┃七七┃影视",
            "type": 3,
            "api": "http://alist.xn--z7x900a.love:63/drpy2.min.js",
            "ext": "http://alist.xn--z7x900a.love:63/七七.js",
            "searchable": 1,
            "quickSearch": 1,
            "filterable": 1
        },
        {
            "key": "Kuaikan",
            "name": "👀┃快看┃影视",
            "type": 3,
            "api": "csp_Kuaikan",
            "searchable": 1,
            "quickSearch": 1,
            "filterable": 1
        }, 
        {
            "key": "农民",
            "name": "🤴┃农民┃影视",
            "type": 3,
            "api": "csp_Nmys",
            "searchable": 1,
            "quickSearch": 1,
            "filterable": 1,
            "ext": "https://ghproxy.com/https://raw.githubusercontent.com/tv-player/tvbox-line/main/box/ext/jwkui9su.json"
        },
        {"key":"csp_WoGG","name":"👽玩偶哥哥┃4K","type":3,"api":"csp_WoGG","searchable":1,"quickSearch":1,"filterable":1,"ext":"https://framagit.org/xiaoxuwenzi/T/-/raw/main/tk/token.txt"},

        
        {
            "key": "csp_AppTT",
            "name": "🐰┃图图┃影视",
            "type": 3,
            "api": "csp_AppTT",
            "searchable": 1,
            "quickSearch": 1,
            "filterable": 1,
            "ext": "tv$$$dlJYWXFYbkgqbmlsU1JLIyNkMFZ0OE1JdzRJQW1yY3I=$$$Y2hpbkpaUzdiKnpYbzZzWQ==$$$aHR0cDovL2FwaS50dDU4LnR2L2NvbmZpZy9uZXd0di5qc29uP3NzPQ==",
            "m3u8ads": "hd.youyhn.com"
        },
        {
            "key": "Czsapp",
            "name": "🏭┃厂长┃影视",
            "type": "3",
            "api": "csp_Czsapp",
            "searchable": "1",
            "quickSearch": "1",
            "filterable": "1"
        },
        {
            "key": "csp_Lib",
            "name": "💫┃Lib┃影视",
            "type": 3,
            "api": "csp_Libvio",
            "searchable": 1,
            "playerType": 2,
            "quickSearch": 1,
            "filterable": 0,
            "ext": "https://tv.libvio.cc"
        },
        {
            "key": "Lezhu",
            "name": "🐷┃乐猪┃影视",
            "api": "csp_XBPQ",
            "type": 3,
            "filterable": 1,
            "quickSearch": 1,
            "searchable": 1,
            "ext": "http://我不是.肥猫.love:63/json/乐猪.json"
        },
        {
            "key": "csp_apple",
            "name": "🍎┃苹果┃影视",
            "type": 3,
            "api": "csp_LiteApple",
            "playerType": 1,
            "searchable": 1,
            "quickSearch": 1,
            "filterable": 1
        },
        {
            "key": "csp_Paper",
            "name": "📜┃纸条┃云盘",
            "type": 3,
            "api": "csp_Paper",
            "searchable": 1,
            "quickSearch": 1,
            "filterable": 1,
            "changeable": 0,
            "ext": "https://framagit.org/xiaoxuwenzi/T/-/raw/main/tk/token.txt",
            "jar": "https://framagit.org/xiaoxuwenzi/T/-/raw/main/jar/fm_custom_spider.jar;md5;7BEAC42396100BC2EA39F016AA11299B"
        },
        {
            "key": "csp_GitCafe",
            "name": "📜┃纸条┃雲盘",
            "type": 3,
            "api": "csp_Gitcafe",
            "searchable": 1,
            "quickSearch": 1,
            "filterable": 1,
            "changeable": 0,
            "ext": "https://framagit.org/xiaoxuwenzi/T/-/raw/main/tk/token.txt",
            "jar": "https://framagit.org/xiaoxuwenzi/T/-/raw/main/jar/fm_custom_spider.jar;md5;7BEAC42396100BC2EA39F016AA11299B"
        },
        {
            "key": "Alist1",
            "name": "🅿┃Alis┃网盘",
            "type": 3,
            "api": "http://我不是.肥猫.love:63/JS/alist.min.js",
            "ext": "http://我不是.肥猫.love:63/alist.json"
        },
        {
            "key": "Alist2",
            "name": "🅿┃Alis┃搜索",
            "type": 3,
            "api": "csp_AList",
            "searchable": 1,
            "filterable": 1,
            "ext": "http://我不是.肥猫.love:63/json/alist3.json",
            "jar": "http://我不是.肥猫.love:63/Jar/Alist3.jar;md5;906B337D4B4BAEF13292D004E5FD8F9B"
        },
       
        {
            "key": "csp_panghu",
            "name": "🐯┃胖虎┃影视",
            "type": 3,
            "api": "csp_Panghu",
            "searchable": 1,
            "quickSearch": 1,
            "filterable": 1
        },
        {
            "key": "mtv_XBPQ_映迷影视",
            "name": "🐾┃映迷┃影视",
            "type": 3,
            "api": "csp_XBPQ",
            "searchable": 1,
            "quickSearch": 1,
            "filterable": 1,
            "ext": "http://我不是.肥猫.love:63/json/映迷影院.json"
        },
        {"key": "csp_biubiu_短视频",
        "name": "️短视频(XB)","type": 3,
        "api": "csp_XBPQ",
        "searchable": 1,
        "quickSearch": 1,
        "filterable": 0,
        "ext": "分类url:http://www.sharenice.net/{cateId}?page={catePg},分类:抖音,直接播放:1,嗅探词:play/?#?item#qianpailive#.flv#mp4"},
        {
            "key": "在线┃直播",
            "name": "📺┃在线┃直播",
            "type": 3,
            "api": "csp_Yj1211",
            "searchable": 1,
            "quickSearch": 1,
            "filterable": 1
        },
        {
		"key": "py_yixi",
		"name": "一席",
		"type": 3,
		"api": "py_yixi",
		"searchable": 1,
		"quickSearch": 1,
		"filterable": 1,
		"ext": "https://framagit.org/xiaoxuwenzi/T/-/raw/main/py/plugin/py_yixi.py"
	},
    {
		"key": "py_xigua",
		"name": "西瓜",
		"type": 3,
		"api": "py_xigua",
		"searchable": 1,
		"quickSearch": 1,
		"filterable": 1,
		"ext": "https://framagit.org/xiaoxuwenzi/T/-/raw/main/py/plugin/py_xigua.py"
	},
    {
		"key": "py_cctv_full",
		"name": "央视大全",
		"type": 3,
		"api": "py_cctv_full",
		"searchable": 1,
		"quickSearch": 1,
		"filterable": 1,
		"ext": "https://framagit.org/xiaoxuwenzi/T/-/raw/main/py/plugin/py_cctv_full.py"
	},{
		"key": "py_gimytv",
		"name": "剧迷",
		"type": 3,
		"api": "py_gimytv",
		"searchable": 1,
		"quickSearch": 1,
		"filterable": 1,
		"ext": "https://framagit.org/xiaoxuwenzi/T/-/raw/main/py/plugin/py_gimytv.py"
	},
        {
            "key": "云播影视",
            "name": "🏖️┃云播┃影视",
            "type": 3,
            "api": "csp_XBPQ",
            "searchable": 1,
            "quickSearch": 1,
            "filterable": 0,
            "ext": "免嗅:1,分类url:http://www.tvyb03.com/vod/show/area/{area}/by/{by}/class/{class}/id/{cateId}/year/{year}.html"
        },
        {
            "key": "csp_555影视",
            "name": "5️⃣️┃555┃影视",
            "type": 3,
            "api": "csp_XBPQ",
            "searchable": 1,
            "quickSearch": 1,
            "filterable": 0,
            "ext": "https://framagit.org/xiaoxuwenzi/T/-/raw/main/json/555dy.json"
        },
        {
            "key": "嗯哩嗯哩",
            "name": "🍖┃嗯哩┃影视",
            "type": 3,
            "api": "csp_XBPQ",
            "searchable": 1,
            "quickSearch": 1,
            "filterable": 1,
            "ext": "https://enlienli.com/vodshow/{cateId}-{area}-{by}-{class}-----{catePg}---{year}.html"
        },
        {
            "key": "csp_Nkdy",
            "name": "🗽┃南柯┃影视",
            "type": 3,
            "api": "csp_Nkdy",
            "searchable": 1,
            "quickSearch": 1,
            "filterable": 1
        },
        {
            "key": "csp_Auete",
            "name": "🏝┃Aue┃影视",
            "type": 3,
            "api": "csp_Auete",
            "searchable": 1,
            "quickSearch": 1,
            "filterable": 1
        },
        {
            "key": "drpy_js_奇珍异兽",
            "name": "🐨┃爱奇┃官源",
            "type": 3,
            "api": "http://id.ganggang.live:63/js/drpy.min.js",
            "ext": "http://id.ganggang.live:63/js/奇珍异兽.js"
        },
        {
            "key": "teng",
            "name": "🐧┃企鹅┃官源",
            "type": 3,
            "api": "csp_QQ",
            "searchable": 1,
            "quickSearch": 1,
            "filterable": 1
        },
        {
            "key": "csp_SP360",
            "name": "📺┃360┃官源",
            "type": 3,
            "api": "csp_XBPQ",
            "searchable": 1,
            "quickSearch": 1,
            "filterable": 1,
            "ext": "http://我不是.肥猫.love:63/json/360影视.json"
        },
        {
            "key": "MGT",
            "name": "🍋┃芒果┃官源",
            "type": 3,
            "api": "csp_Mgtv",
            "searchable": 1,
            "quickSearch": 1,
            "filterable": 1
        },
        {
            "key": "csp_biubiu_影视工厂",
            "name": "🎥┃影视┃工厂",
            "type": 3,
            "api": "csp_XBPQ",
            "searchable": 1,
            "quickSearch": 1,
            "filterable": 0,
            "ext": "http://maoyingshi.cc/tvbox/云星日记/sh/MaooXB/ysgc2.json"
        },
        {
            "key": "csp_biubiu_voflix",
            "name": "🌀┃Vof┃影视",
            "type": 3,
            "api": "csp_XBPQ",
            "searchable": 1,
            "quickSearch": 1,
            "filterable": 1,
            "ext": "http://w.g9.pub:66/381203888/XP/voflix.json"
        },
        {
            "key": "csp_XBiu口袋影院",
            "name": "📩┃口袋┃影视",
            "type": 3,
            "api": "csp_XBiu",
            "ext": {
                "homeUrl": "http://www.koudaitv.com/type/{cateId}-{catePg}.html",
                "playlist": {
                    "sort": 1
                }
            }
        },
        {
            "key": "csp_XBiu233动漫",
            "name": "🦁┃233┃动漫",
            "type": 3,
            "api": "csp_XBiu",
            "ext": "https://www.233dm.cc/show/{cateId}--------{catePg}---.html"
        },
        {
            "key": "csp_XBiuCOKEMV",
            "name": "🍬┃COK┃影视",
            "type": 3,
            "api": "csp_XBiu",
            "ext": "https://cokemv.me/vodshow/{cateId}--------{catePg}---.html"
        },
        {
            "key": "csp_Bd",
            "name": "🎵┃哔滴┃影视",
            "type": 3,
            "api": "csp_Bdys01",
            "searchable": 1,
            "quickSearch": 1,
            "filterable": 1
        },
        {
            "key": "csp_Bttoo",
            "name": "🔺┃Btto┃影视",
            "api": "csp_Bttoo",
            "type": 3,
            "filterable": 1,
            "quickSearch": 1,
            "searchable": 1
        },
        
        {
            "key": "在线之家",
            "name": "🎞┃在线┃之家",
            "type": 3,
            "api": "csp_Zxzj",
            "searchable": 1,
            "quickSearch": 1,
            "filterable": 1
        },
        {
            "key": "Dm84",
            "name": "🦸┃动漫┃巴士",
            "type": 3,
            "api": "csp_Dm84",
            "searchable": 1,
            "quickSearch": 1,
            "filterable": 1
        },
        {
            "key": "Anime1",
            "name": "🧟┃Ani┃影视",
            "type": 3,
            "api": "csp_Anime1",
            "searchable": 1,
            "quickSearch": 1,
            "filterable": 1
        },
        {
            "key": "csp_search_Yisou",
            "name": "🐏┃易搜┃搜索",
            "type": 3,
            "api": "csp_YiSo",
            "playerType": 1,
            "searchable": 1,
            "quickSearch": 1,
            "filterable": 0,
            "ext": "https://framagit.org/xiaoxuwenzi/T/-/raw/main/tk/token.txt",
            "jar": "https://framagit.org/xiaoxuwenzi/T/-/raw/main/jar/fm_custom_spider.jar;md5;7BEAC42396100BC2EA39F016AA11299B"
        },
        {
            "key": "csp_search_Zhaozy",
            "name": "🐑┃资源┃搜索",
            "type": 3,
            "api": "csp_Zhaozy",
            "playerType": 1,
            "searchable": 1,
            "quickSearch": 1,
            "filterable": 0,
            "ext": "https://framagit.org/xiaoxuwenzi/T/-/raw/main/tk/token.txt$$$xxooo$$$qq112233",
            "jar": "https://framagit.org/xiaoxuwenzi/T/-/raw/main/jar/fm_custom_spider.jar;md5;7BEAC42396100BC2EA39F016AA11299B"
        },
        {
            "key": "csp_search_Upyunso",
            "name": "🐐┃云搜┃搜索",
            "type": 3,
            "api": "csp_UpYun",
            "playerType": 1,
            "searchable": 1,
            "quickSearch": 1,
            "filterable": 0,
            "ext": "https://framagit.org/xiaoxuwenzi/T/-/raw/main/tk/token.txt",
            "jar": "https://framagit.org/xiaoxuwenzi/T/-/raw/main/jar/fm_custom_spider.jar;md5;7BEAC42396100BC2EA39F016AA11299B"
        },
        {
            "key": "csp_search_Alips",
            "name": "🦌┃盘搜┃搜索",
            "type": 3,
            "api": "csp_PanSou",
            "playerType": 1,
            "searchable": 1,
            "quickSearch": 1,
            "filterable": 0,
            "ext": "https://framagit.org/xiaoxuwenzi/T/-/raw/main/tk/token.txt",
            "jar": "https://framagit.org/xiaoxuwenzi/T/-/raw/main/jar/fm_custom_spider.jar;md5;7BEAC42396100BC2EA39F016AA11299B"
        },
        {
		"key": "py_bilibili",
		"name": "哔哩哔哩",
		"type": 3,
		"api": "py_bilibili",
		"searchable": 0,
		"quickSearch": 1,
		"filterable": 1,
		"ext": "https://framagit.org/xiaoxuwenzi/T/-/raw/main/py/bilibili/py_bilibili.py"
	},
        //{"key": "py_bilibili2","name": "哔哩","type": 3,"api": "py_bilibili2","searchable": 1,"quickSearch": 1,"filterable": 1,"ext": "https://framagit.org/xiaoxuwenzi/T/-/raw/main/py/plugin/py_bilibili2.py"},
        {
            "key": "演唱会",
            "name": "🅱┃哔哩┃音乐",
            "type": 3,
            "api": "csp_Bili",
            "searchable": 0,
            "quickSearch": 0,
            "filterable": 1,
            "ext": "http://我不是.肥猫.love:63/json/ych.json"
        },
        {
            "key": "js虎牙",
            "name": "🐅┃虎牙┃直播",
            "type": 3,
            "api": "http://id.ganggang.live:63/js/drpy.min.js",
            "ext": "http://id.ganggang.live:63/js/虎牙直播.js",
            "searchable": 0,
            "quickSearch": 0,
            "filterable": 0
        },
        {
            "key": "csp_XYQBiu_斗鱼",
            "name": "🐟┃斗鱼┃直播",
            "type": 3,
            "api": "csp_XYQBiu",
            "searchable": 0,
            "quickSearch": 0,
            "filterable": 0,
            "ext": "http://52bsj.vip:81/api/v3/file/get/61539/%E6%96%97%E9%B1%BC%E7%9B%B4%E6%92%AD.json?sign=QstVfVPDwiqEABPoyKrhYV4WfMeyACXtB5TWIDPMHyE%3D%3A0"
        },
        {
            "key": "csp_XPath_企鹅体育",
            "name": "🐧┃企鹅┃体育",
            "type": 3,
            "api": "csp_XPath",
            "searchable": 0,
            "quickSearch": 0,
            "filterable": 0,
            "ext": "http://我不是.肥猫.love:63/json/企鹅直播.json"
        },
        {
            "key": "csp_XYQBiu_17看球",
            "name": "⚽┃一七┃看球",
            "type": 3,
            "api": "csp_XYQBiu",
            "searchable": 0,
            "quickSearch": 0,
            "filterable": 0,
            "ext": "http://52bsj.vip:81/api/v3/file/get/60889/17%E7%9C%8B%E7%90%83.json?sign=YyHOQiZ99Vuod4F5E1vNO9X4z8VGPl-jxv4TikL8WaU%3D%3A0"
        },
        {
            "key": "csp_XYQBiu_聚合短视频",
            "name": "📽️┃视频┃聚合",
            "type": 3,
            "api": "csp_XYQBiu",
            "searchable": 0,
            "quickSearch": 0,
            "filterable": 0,
            "ext": "http://52bsj.vip:81/api/v3/file/get/61576/%E5%88%86%E4%BA%AB%E7%9F%AD%E8%A7%86%E9%A2%91.json?sign=_4eGXzEgn-jwg69sp0jcc4W8Ze2psCeMUZafTfXQ8g8%3D%3A0"
        },
        { 
   "key": "直播转点播", 
   "name": "直播转换", 
   "type": 3, 
   "api": "https://framagit.org/xiaoxuwenzi/T/-/raw/main/json/直播转点播.js", 
   "ext": "https://framagit.org/xiaoxuwenzi/T/-/raw/main/json/直播.js" 
  },
        {
            "key": "csp_trj",
            "name": "✈┃唐人┃墙外",
            "type": 3,
            "api": "csp_Tangrenjie",
            "searchable": 1,
            "quickSearch": 1,
            "filterable": 1
        },
        {
            "key": "csp_If101",
            "name": "✈┃If10┃墙外",
            "type": 3,
            "api": "csp_If101",
            "searchable": 1,
            "quickSearch": 1,
            "filterable": 1
        },
        {
            "key": "csp_Xiaoh",
            "name": "✈┃小宝┃墙外",
            "type": 3,
            "api": "csp_Xiaoh",
            "searchable": 1,
            "quickSearch": 1,
            "filterable": 1
        },
        
        {
            "key": "push_agent",
            "name": "▶┃推送┃磁力",
            "type": 3,
            "api": "csp_Push",
            "playerType": 1,
            "searchable": 0,
            "quickSearch": 0,
            "filterable": 0,
            "ext": "https://framagit.org/xiaoxuwenzi/T/-/raw/main/tk/token.txt"
        }
    ],
   
    "parses": [
        {
            "name": "Json轮询",
            "type": 2,
            "url": "Sequence"
        },
        {
            "name": "Json并发",
            "type": 2,
            "url": "Parallel"
        },
        {
            "name": "解析聚合",
            "type": 3,
            "url": "Demo"
        },
        {
            "name": "瞄影嗅探",
            "type": 0,
            "url": "http://www.miaoys.cc/vip/?url="
        },
        {
            "name": "星辰云解析",
            "type": 1,
            "url": "http://xn--wnup5g.xn--z7x900a.love:63/Art/analysis.php?v=",
            "ext": {
                "flag": [
                    "qq",
                    "腾讯",
                    "企鹅",
                    "IQiYi",
                    "qiyi",
                    "爱奇艺",
                    "奇艺",
                    "youku",
                    "YouKu",
                    "优酷",
                    "sohu",
                    "SoHu",
                    "搜狐",
                    "letv",
                    "LeShi",
                    "乐视",
                    "imgo",
                    "mgtv",
                    "MangGuo",
                    "芒果",
                    "SLYS4k",
                    "BYGA",
                    "luanzi",
                    "AliS",
                    "dxzy",
                    "bilibili",
                    "QEYSS",
                    "xigua",
                    "西瓜视频",
                    "腾讯视频",
                    "奇艺视频",
                    "优酷视频",
                    "芒果视频",
                    "乐视视频"
                ]
            }
        },
        {
            "name": "喵喵喵？",
            "type": 1,
            "url": "https://jx.ccabc.cc/byg/?url=",
            "ext": {
                "flag": [
                    "qq",
                    "腾讯",
                    "企鹅",
                    "IQiYi",
                    "qiyi",
                    "爱奇艺",
                    "奇艺",
                    "youku",
                    "YouKu",
                    "优酷",
                    "sohu",
                    "SoHu",
                    "搜狐",
                    "letv",
                    "LeShi",
                    "乐视",
                    "imgo",
                    "mgtv",
                    "MangGuo",
                    "芒果",
                    "SLYS4k",
                    "BYGA",
                    "luanzi",
                    "AliS",
                    "dxzy",
                    "bilibili",
                    "QEYSS",
                    "xigua",
                    "西瓜视频",
                    "腾讯视频",
                    "奇艺视频",
                    "优酷视频",
                    "芒果视频",
                    "乐视视频"
                ]
            }
        },
        {
            "name": "刚刚走过",
            "type": 1,
            "url": "http://jx.fuqizhishi.com:63/API.php?appkey=feimao&url=",
            "header": {
                "User-Agent": "Mozilla/5.0"
            }
        },
        {
            "name": "parwix稳定",
            "type": 0,
            "url": "https://jx.bozrc.com:4433/player/?url=",
            "ext": {
                "flag": [
                    "qq",
                    "腾讯",
                    "qiyi",
                    "iqiyi",
                    "爱奇艺",
                    "奇艺",
                    "youku",
                    "优酷",
                    "mgtv",
                    "芒果",
                    "letv",
                    "乐视",
                    "pptv",
                    "PPTV",
                    "sohu",
                    "bilibili",
                    "哔哩哔哩",
                    "哔哩"
                ]
            }
        },
        {
            "name": "keyu",
            "type": 1,
            "url": "http://newjiexi.gotka.top/keyu3.php?url=",
            "ext": {
                "flag": [
                    "qq",
                    "腾讯",
                    "qiyi",
                    "爱奇艺",
                    "奇艺",
                    "youku",
                    "优酷",
                    "mgtv",
                    "芒果",
                    "letv",
                    "乐视",
                    "pptv",
                    "PPTV",
                    "sohu",
                    "bilibili",
                    "哔哩哔哩",
                    "哔哩"
                ],
                "header": {
                    "User-Agent": "okhttp/4.1.0"
                }
            }
        }
    ],
    "flags": [
        "youku",
        "qq",
        "QQ",
        "iqiyi",
        "qiyi",
        "letv",
        "sohu",
        "tudou",
        "pptv",
        "PPTV",
        "mgtv",
        "ltnb",
        "rx",
        "SLYS4k",
        "BYGA",
        "luanzi",
        "dxzy",
        "QEYSS",
        "aliyun",
        "AliS",
        "122",
        "chuangying",
        "CL4K",
        "xfyun",
        "wuduzy",
        "wasu",
        "bilibili",
        "renrenmi",
        "xmm",
        "xigua",
        "m1905",
        "funshion",
        "优酷",
        "芒果",
        "腾讯",
        "爱奇艺",
        "奇艺",
        "哔哩哔哩",
        "哔哩",
        "西瓜视频",
        "腾讯视频",
        "奇艺视频",
        "优酷视频",
        "芒果视频",
        "乐视视频"
    ],
    "ijk": [
        {
            "group": "软解码",
            "options": [
                {
                    "category": 4,
                    "name": "opensles",
                    "value": "0"
                },
                {
                    "category": 4,
                    "name": "overlay-format",
                    "value": "842225234"
                },
                {
                    "category": 4,
                    "name": "framedrop",
                    "value": "1"
                },
                {
                    "category": 4,
                    "name": "soundtouch",
                    "value": "1"
                },
                {
                    "category": 4,
                    "name": "start-on-prepared",
                    "value": "1"
                },
                {
                    "category": 1,
                    "name": "http-detect-range-support",
                    "value": "0"
                },
                {
                    "category": 2,
                    "name": "skip_loop_filter",
                    "value": "48"
                },
                {
                    "category": 4,
                    "name": "reconnect",
                    "value": "1"
                },
                {
                    "category": 4,
                    "name": "enable-accurate-seek",
                    "value": "0"
                },
                {
                    "category": 4,
                    "name": "mediacodec",
                    "value": "0"
                },
                {
                    "category": 4,
                    "name": "mediacodec-auto-rotate",
                    "value": "0"
                },
                {
                    "category": 4,
                    "name": "mediacodec-handle-resolution-change",
                    "value": "0"
                },
                {
                    "category": 4,
                    "name": "mediacodec-hevc",
                    "value": "0"
                },
                {
                    "category": 1,
                    "name": "dns_cache_timeout",
                    "value": "600000000"
                }
            ]
        },
        {
            "group": "硬解码",
            "options": [
                {
                    "category": 4,
                    "name": "opensles",
                    "value": "0"
                },
                {
                    "category": 4,
                    "name": "overlay-format",
                    "value": "842225234"
                },
                {
                    "category": 4,
                    "name": "framedrop",
                    "value": "1"
                },
                {
                    "category": 4,
                    "name": "soundtouch",
                    "value": "1"
                },
                {
                    "category": 4,
                    "name": "start-on-prepared",
                    "value": "1"
                },
                {
                    "category": 1,
                    "name": "http-detect-range-support",
                    "value": "0"
                },
                {
                    "category": 1,
                    "name": "fflags",
                    "value": "fastseek"
                },
                {
                    "category": 2,
                    "name": "skip_loop_filter",
                    "value": "48"
                },
                {
                    "category": 4,
                    "name": "reconnect",
                    "value": "1"
                },
                {
                    "category": 4,
                    "name": "enable-accurate-seek",
                    "value": "0"
                },
                {
                    "category": 4,
                    "name": "mediacodec",
                    "value": "1"
                },
                {
                    "category": 4,
                    "name": "mediacodec-auto-rotate",
                    "value": "1"
                },
                {
                    "category": 4,
                    "name": "mediacodec-handle-resolution-change",
                    "value": "1"
                },
                {
                    "category": 4,
                    "name": "mediacodec-hevc",
                    "value": "1"
                },
                {
                    "category": 1,
                    "name": "dns_cache_timeout",
                    "value": "600000000"
                }
            ]
        }
    ],
    "ads": [
        "https://lf1-cdn-tos.bytegoofy.com/obj/tos-cn-i-dy/455ccf9e8ae744378118e4bd289288dd",
        "mimg.0c1q0l.cn",
        "www.googletagmanager.com",
        "www.google-analytics.com",
        "wan.51img1.com",
        "mc.usihnbcq.cn",
        "mg.g1mm3d.cn",
        "mscs.svaeuzh.cn",
        "cnzz.hhttm.top",
        "tp.vinuxhome.com",
        "cnzz.mmstat.com",
        "www.baihuillq.com",
        "s23.cnzz.com",
        "z3.cnzz.com",
        "c.cnzz.com",
        "stj.v1vo.top",
        "z12.cnzz.com",
        "img.mosflower.cn",
        "tips.gamevvip.com",
        "ehwe.yhdtns.com",
        "xdn.cqqc3.com",
        "www.jixunkyy.cn",
        "sp.chemacid.cn",
        "hm.baidu.com",
        "s9.cnzz.com",
        "z6.cnzz.com",
        "um.cavuc.com",
        "mav.mavuz.com",
        "wofwk.aoidf3.com",
        "z5.cnzz.com",
        "xc.hubeijieshikj.cn",
        "tj.tianwenhu.com",
        "xg.gars57.cn",
        "k.jinxiuzhilv.com",
        "cdn.bootcss.com",
        "ppl.xunzhuo123.com",
        "xomk.jiangjunmh.top",
        "img.xunzhuo123.com",
        "z1.cnzz.com",
        "s13.cnzz.com",
        "xg.huataisangao.cn",
        "z7.cnzz.com",
        "xg.huataisangao.cn",
        "z2.cnzz.com",
        "s96.cnzz.com",
        "q11.cnzz.com",
        "thy.dacedsfa.cn",
        "xg.whsbpw.cn",
        "s19.cnzz.com",
        "z8.cnzz.com",
        "s4.cnzz.com",
        "f5w.as12df.top",
        "ae01.alicdn.com",
        "www.92424.cn",
        "k.wudejia.com",
        "vivovip.mmszxc.top",
        "qiu.xixiqiu.com",
        "cdnjs.hnfenxun.com",
        "cms.qdwght.com"
    ],
     "lives": [
    {
      "name": "TXT",
      "type": 0,
      "url": "http://我不是.肥猫.love:63/TV/tvzb.txt",
      "epg": "http://epg.51zmt.top:8000/api/diyp/?ch={name}&date={date}",
      "logo": "https://epg.112114.xyz/logo/{name}.png",
      "ua": "Mozilla/5.0 (Windows NT 10.0; Win64; x64) AppleWebKit/537.36 (KHTML, like Gecko) Chrome/108.0.0.0 Safari/537.36",
      "boot": false
    }],
    "wallpaper": "https://tool.weetai.cn/api",
    "spider": "https://framagit.org/xiaoxuwenzi/T/-/raw/main/jar/panda230216.jar;md5;B46741C38F05CE1382CE558A7B1FD4BC"
}
